DS00010.CSV

Memory Length,25000,
Trigger Level,-1.20mV,
Source,CH1,
Probe Ratio,1.000E+00,
Vertical Units,V,
Vertical Scale,1.000E-02,
Vertical Position,0.000E+00,
Horizontal Units,S,
Horizontal Scale,1.000E-05,
Horizontal Position,-1.000E-07,
Horizontal Mode,Main,
Sampling Period,5.000E-09,
Firmware,V1.06,
Time,22-Apr-21 11:42:38,
Mode,Detail,
Waveform Data,
-6.260000e-05,-5.20e-03,
-6.259500e-05,-4.80e-03,
-6.259000e-05,-4.80e-03,
-6.258500e-05,-4.40e-03,
-6.258000e-05,-4.80e-03,
-6.257500e-05,-4.80e-03,
-6.257000e-05,-4.80e-03,
-6.256500e-05,-4.80e-03,
-6.256000e-05,-4.40e-03,
-6.255500e-05,-4.80e-03,
-6.255000e-05,-4.40e-03,
-6.254500e-05,-4.00e-03,
-6.254000e-05,-4.00e-03,
-6.253500e-05,-4.00e-03,
-6.253000e-05,-3.60e-03,
-6.252500e-05,-3.60e-03,
-6.252000e-05,-3.60e-03,
-6.251500e-05,-3.60e-03,
-6.251000e-05,-3.60e-03,
-6.250500e-05,-3.60e-03,
-6.250000e-05,-3.60e-03,
-6.249500e-05,-4.00e-03,
-6.249000e-05,-4.40e-03,
-6.248500e-05,-4.00e-03,
-6.248000e-05,-4.40e-03,
-6.247500e-05,-4.00e-03,
-6.247000e-05,-4.00e-03,
-6.246500e-05,-4.00e-03,
-6.246000e-05,-3.60e-03,
-6.245500e-05,-3.60e-03,
-6.245000e-05,-3.60e-03,
-6.244500e-05,-3.60e-03,
-6.244000e-05,-3.20e-03,
-6.243500e-05,-3.60e-03,
-6.243000e-05,-4.00e-03,
-6.242500e-05,-3.20e-03,
-6.242000e-05,-3.20e-03,
-6.241500e-05,-3.20e-03,
-6.241000e-05,-2.80e-03,
-6.240500e-05,-2.80e-03,
-6.240000e-05,-3.20e-03,
-6.239500e-05,-3.20e-03,
-6.239000e-05,-3.20e-03,
-6.238500e-05,-3.20e-03,
-6.238000e-05,-3.60e-03,
-6.237500e-05,-3.20e-03,
-6.237000e-05,-3.20e-03,
-6.236500e-05,-2.80e-03,
-6.236000e-05,-3.20e-03,
-6.235500e-05,-2.80e-03,
-6.235000e-05,-2.40e-03,
-6.234500e-05,-2.80e-03,
-6.234000e-05,-2.80e-03,
-6.233500e-05,-2.80e-03,
-6.233000e-05,-3.20e-03,
-6.232500e-05,-3.20e-03,
-6.232000e-05,-3.20e-03,
-6.231500e-05,-3.20e-03,
-6.231000e-05,-2.80e-03,
-6.230500e-05,-2.40e-03,
-6.230000e-05,-2.40e-03,
-6.229500e-05,-2.40e-03,
-6.229000e-05,-2.40e-03,
-6.228500e-05,-2.00e-03,
-6.228000e-05,-2.40e-03,
-6.227500e-05,-2.80e-03,
-6.227000e-05,-2.40e-03,
-6.226500e-05,-2.40e-03,
-6.226000e-05,-2.80e-03,
-6.225500e-05,-2.80e-03,
-6.225000e-05,-2.80e-03,
-6.224500e-05,-2.40e-03,
-6.224000e-05,-2.40e-03,
-6.223500e-05,-2.40e-03,
-6.223000e-05,-2.40e-03,
-6.222500e-05,-2.40e-03,
-6.222000e-05,-2.80e-03,
-6.221500e-05,-2.40e-03,
-6.221000e-05,-3.60e-03,
-6.220500e-05,-3.20e-03,
-6.220000e-05,-2.40e-03,
-6.219500e-05,-2.80e-03,
-6.219000e-05,-2.40e-03,
-6.218500e-05,-2.40e-03,
-6.218000e-05,-2.00e-03,
-6.217500e-05,-2.00e-03,
-6.217000e-05,-1.60e-03,
-6.216500e-05,-1.60e-03,
-6.216000e-05,-2.00e-03,
-6.215500e-05,-2.40e-03,
-6.215000e-05,-2.40e-03,
-6.214500e-05,-2.40e-03,
-6.214000e-05,-2.80e-03,
-6.213500e-05,-2.80e-03,
-6.213000e-05,-2.40e-03,
-6.212500e-05,-2.80e-03,
-6.212000e-05,-2.40e-03,
-6.211500e-05,-2.40e-03,
-6.211000e-05,-2.40e-03,
-6.210500e-05,-2.40e-03,
-6.210000e-05,-2.40e-03,
-6.209500e-05,-2.40e-03,
-6.209000e-05,-2.40e-03,
-6.208500e-05,-2.80e-03,
-6.208000e-05,-2.80e-03,
-6.207500e-05,-2.80e-03,
-6.207000e-05,-3.20e-03,
-6.206500e-05,-3.20e-03,
-6.206000e-05,-2.80e-03,
-6.205500e-05,-2.80e-03,
-6.205000e-05,-2.40e-03,
-6.204500e-05,-2.00e-03,
-6.204000e-05,-2.40e-03,
-6.203500e-05,-2.00e-03,
-6.203000e-05,-2.40e-03,
-6.202500e-05,-2.40e-03,
-6.202000e-05,-2.40e-03,
-6.201500e-05,-2.40e-03,
-6.201000e-05,-2.40e-03,
-6.200500e-05,-2.40e-03,
-6.200000e-05,-2.80e-03,
-6.199500e-05,-2.80e-03,
-6.199000e-05,-2.80e-03,
-6.198500e-05,-2.80e-03,
-6.198000e-05,-2.80e-03,
-6.197500e-05,-3.20e-03,
-6.197000e-05,-2.40e-03,
-6.196500e-05,-2.40e-03,
-6.196000e-05,-2.80e-03,
-6.195500e-05,-2.80e-03,
-6.195000e-05,-2.00e-03,
-6.194500e-05,-2.40e-03,
-6.194000e-05,-2.40e-03,
-6.193500e-05,-2.40e-03,
-6.193000e-05,-2.40e-03,
-6.192500e-05,-2.40e-03,
-6.192000e-05,-2.40e-03,
-6.191500e-05,-2.80e-03,
-6.191000e-05,-2.40e-03,
-6.190500e-05,-2.00e-03,
-6.190000e-05,-2.40e-03,
-6.189500e-05,-2.40e-03,
-6.189000e-05,-2.40e-03,
-6.188500e-05,-2.00e-03,
-6.188000e-05,-2.40e-03,
-6.187500e-05,-2.40e-03,
-6.187000e-05,-2.40e-03,
-6.186500e-05,-2.40e-03,
-6.186000e-05,-2.80e-03,
-6.185500e-05,-2.80e-03,
-6.185000e-05,-3.20e-03,
-6.184500e-05,-2.40e-03,
-6.184000e-05,-2.40e-03,
-6.183500e-05,-2.40e-03,
-6.183000e-05,-2.00e-03,
-6.182500e-05,-1.60e-03,
-6.182000e-05,-2.00e-03,
-6.181500e-05,-1.60e-03,
-6.181000e-05,-2.40e-03,
-6.180500e-05,-2.40e-03,
-6.180000e-05,-2.40e-03,
-6.179500e-05,-2.80e-03,
-6.179000e-05,-2.40e-03,
-6.178500e-05,-2.40e-03,
-6.178000e-05,-2.40e-03,
-6.177500e-05,-2.40e-03,
-6.177000e-05,-2.00e-03,
-6.176500e-05,-2.40e-03,
-6.176000e-05,-2.40e-03,
-6.175500e-05,-2.40e-03,
-6.175000e-05,-2.40e-03,
-6.174500e-05,-2.80e-03,
-6.174000e-05,-3.60e-03,
-6.173500e-05,-2.80e-03,
-6.173000e-05,-3.20e-03,
-6.172500e-05,-3.60e-03,
-6.172000e-05,-2.80e-03,
-6.171500e-05,-2.40e-03,
-6.171000e-05,-2.40e-03,
-6.170500e-05,-2.40e-03,
-6.170000e-05,-2.00e-03,
-6.169500e-05,-2.00e-03,
-6.169000e-05,-2.00e-03,
-6.168500e-05,-2.40e-03,
-6.168000e-05,-2.40e-03,
-6.167500e-05,-2.40e-03,
-6.167000e-05,-2.80e-03,
-6.166500e-05,-2.80e-03,
-6.166000e-05,-2.80e-03,
-6.165500e-05,-2.80e-03,
-6.165000e-05,-2.40e-03,
-6.164500e-05,-2.40e-03,
-6.164000e-05,-2.40e-03,
-6.163500e-05,-2.80e-03,
-6.163000e-05,-2.40e-03,
-6.162500e-05,-2.00e-03,
-6.162000e-05,-2.80e-03,
-6.161500e-05,-2.40e-03,
-6.161000e-05,-2.40e-03,
-6.160500e-05,-2.40e-03,
-6.160000e-05,-2.40e-03,
-6.159500e-05,-2.40e-03,
-6.159000e-05,-2.40e-03,
-6.158500e-05,-2.40e-03,
-6.158000e-05,-2.40e-03,
-6.157500e-05,-2.40e-03,
-6.157000e-05,-2.40e-03,
-6.156500e-05,-2.40e-03,
-6.156000e-05,-2.40e-03,
-6.155500e-05,-2.80e-03,
-6.155000e-05,-3.20e-03,
-6.154500e-05,-2.40e-03,
-6.154000e-05,-2.80e-03,
-6.153500e-05,-3.20e-03,
-6.153000e-05,-2.80e-03,
-6.152500e-05,-2.80e-03,
-6.152000e-05,-3.20e-03,
-6.151500e-05,-2.80e-03,
-6.151000e-05,-3.20e-03,
-6.150500e-05,-2.80e-03,
-6.150000e-05,-2.80e-03,
-6.149500e-05,-2.80e-03,
-6.149000e-05,-2.40e-03,
-6.148500e-05,-2.40e-03,
-6.148000e-05,-2.40e-03,
-6.147500e-05,-2.80e-03,
-6.147000e-05,-2.40e-03,
-6.146500e-05,-3.20e-03,
-6.146000e-05,-2.40e-03,
-6.145500e-05,-2.40e-03,
-6.145000e-05,-3.20e-03,
-6.144500e-05,-2.40e-03,
-6.144000e-05,-2.80e-03,
-6.143500e-05,-3.20e-03,
-6.143000e-05,-3.20e-03,
-6.142500e-05,-3.20e-03,
-6.142000e-05,-3.60e-03,
-6.141500e-05,-4.00e-03,
-6.141000e-05,-4.00e-03,
-6.140500e-05,-4.00e-03,
-6.140000e-05,-4.40e-03,
-6.139500e-05,-4.00e-03,
-6.139000e-05,-3.60e-03,
-6.138500e-05,-3.60e-03,
-6.138000e-05,-3.20e-03,
-6.137500e-05,-2.80e-03,
-6.137000e-05,-3.20e-03,
-6.136500e-05,-3.20e-03,
-6.136000e-05,-2.80e-03,
-6.135500e-05,-2.80e-03,
-6.135000e-05,-3.20e-03,
-6.134500e-05,-3.60e-03,
-6.134000e-05,-3.20e-03,
-6.133500e-05,-2.80e-03,
-6.133000e-05,-3.20e-03,
-6.132500e-05,-2.80e-03,
-6.132000e-05,-2.40e-03,
-6.131500e-05,-2.80e-03,
-6.131000e-05,-2.40e-03,
-6.130500e-05,-2.40e-03,
-6.130000e-05,-2.80e-03,
-6.129500e-05,-2.80e-03,
-6.129000e-05,-3.20e-03,
-6.128500e-05,-3.20e-03,
-6.128000e-05,-3.60e-03,
-6.127500e-05,-4.00e-03,
-6.127000e-05,-4.00e-03,
-6.126500e-05,-4.00e-03,
-6.126000e-05,-3.60e-03,
-6.125500e-05,-4.00e-03,
-6.125000e-05,-3.60e-03,
-6.124500e-05,-3.20e-03,
-6.124000e-05,-3.60e-03,
-6.123500e-05,-3.60e-03,
-6.123000e-05,-3.20e-03,
-6.122500e-05,-3.20e-03,
-6.122000e-05,-3.60e-03,
-6.121500e-05,-3.20e-03,
-6.121000e-05,-3.60e-03,
-6.120500e-05,-3.60e-03,
-6.120000e-05,-3.60e-03,
-6.119500e-05,-3.60e-03,
-6.119000e-05,-3.60e-03,
-6.118500e-05,-3.60e-03,
-6.118000e-05,-3.60e-03,
-6.117500e-05,-3.20e-03,
-6.117000e-05,-3.20e-03,
-6.116500e-05,-3.20e-03,
-6.116000e-05,-2.80e-03,
-6.115500e-05,-2.80e-03,
-6.115000e-05,-3.20e-03,
-6.114500e-05,-3.20e-03,
-6.114000e-05,-3.20e-03,
-6.113500e-05,-3.60e-03,
-6.113000e-05,-3.60e-03,
-6.112500e-05,-3.60e-03,
-6.112000e-05,-3.60e-03,
-6.111500e-05,-3.60e-03,
-6.111000e-05,-3.60e-03,
-6.110500e-05,-3.60e-03,
-6.110000e-05,-3.60e-03,
-6.109500e-05,-3.20e-03,
-6.109000e-05,-3.20e-03,
-6.108500e-05,-3.20e-03,
-6.108000e-05,-3.20e-03,
-6.107500e-05,-2.80e-03,
-6.107000e-05,-3.20e-03,
-6.106500e-05,-3.20e-03,
-6.106000e-05,-3.20e-03,
-6.105500e-05,-3.20e-03,
-6.105000e-05,-3.60e-03,
-6.104500e-05,-3.60e-03,
-6.104000e-05,-3.60e-03,
-6.103500e-05,-3.60e-03,
-6.103000e-05,-3.60e-03,
-6.102500e-05,-3.60e-03,
-6.102000e-05,-3.20e-03,
-6.101500e-05,-3.20e-03,
-6.101000e-05,-3.20e-03,
-6.100500e-05,-3.20e-03,
-6.100000e-05,-3.20e-03,
-6.099500e-05,-3.20e-03,
-6.099000e-05,-3.60e-03,
-6.098500e-05,-3.20e-03,
-6.098000e-05,-3.20e-03,
-6.097500e-05,-3.20e-03,
-6.097000e-05,-3.20e-03,
-6.096500e-05,-3.20e-03,
-6.096000e-05,-2.80e-03,
-6.095500e-05,-2.80e-03,
-6.095000e-05,-2.80e-03,
-6.094500e-05,-2.40e-03,
-6.094000e-05,-2.80e-03,
-6.093500e-05,-2.80e-03,
-6.093000e-05,-2.80e-03,
-6.092500e-05,-2.80e-03,
-6.092000e-05,-3.20e-03,
-6.091500e-05,-3.20e-03,
-6.091000e-05,-3.20e-03,
-6.090500e-05,-3.20e-03,
-6.090000e-05,-2.80e-03,
-6.089500e-05,-2.80e-03,
-6.089000e-05,-2.40e-03,
-6.088500e-05,-2.40e-03,
-6.088000e-05,-2.40e-03,
-6.087500e-05,-2.40e-03,
-6.087000e-05,-2.40e-03,
-6.086500e-05,-2.00e-03,
-6.086000e-05,-2.00e-03,
-6.085500e-05,-2.00e-03,
-6.085000e-05,-2.40e-03,
-6.084500e-05,-2.40e-03,
-6.084000e-05,-2.40e-03,
-6.083500e-05,-2.40e-03,
-6.083000e-05,-2.40e-03,
-6.082500e-05,-2.40e-03,
-6.082000e-05,-2.40e-03,
-6.081500e-05,-2.40e-03,
-6.081000e-05,-2.40e-03,
-6.080500e-05,-2.40e-03,
-6.080000e-05,-2.40e-03,
-6.079500e-05,-2.80e-03,
-6.079000e-05,-2.40e-03,
-6.078500e-05,-2.40e-03,
-6.078000e-05,-2.40e-03,
-6.077500e-05,-2.40e-03,
-6.077000e-05,-1.60e-03,
-6.076500e-05,-1.60e-03,
-6.076000e-05,-2.00e-03,
-6.075500e-05,-1.60e-03,
-6.075000e-05,-1.60e-03,
-6.074500e-05,-2.00e-03,
-6.074000e-05,-2.40e-03,
-6.073500e-05,-2.40e-03,
-6.073000e-05,-2.40e-03,
-6.072500e-05,-2.80e-03,
-6.072000e-05,-2.40e-03,
-6.071500e-05,-2.40e-03,
-6.071000e-05,-2.00e-03,
-6.070500e-05,-2.00e-03,
-6.070000e-05,-1.60e-03,
-6.069500e-05,-1.60e-03,
-6.069000e-05,-1.20e-03,
-6.068500e-05,-1.60e-03,
-6.068000e-05,-1.60e-03,
-6.067500e-05,-1.60e-03,
-6.067000e-05,-2.00e-03,
-6.066500e-05,-2.00e-03,
-6.066000e-05,-1.60e-03,
-6.065500e-05,-1.60e-03,
-6.065000e-05,-1.60e-03,
-6.064500e-05,-1.60e-03,
-6.064000e-05,-1.20e-03,
-6.063500e-05,-8.00e-04,
-6.063000e-05,-8.00e-04,
-6.062500e-05,-1.20e-03,
-6.062000e-05,-1.20e-03,
-6.061500e-05,-1.20e-03,
-6.061000e-05,-1.60e-03,
-6.060500e-05,-1.60e-03,
-6.060000e-05,-1.60e-03,
-6.059500e-05,-1.20e-03,
-6.059000e-05,-8.00e-04,
-6.058500e-05,-8.00e-04,
-6.058000e-05,0.00e+00,
-6.057500e-05,4.00e-04,
-6.057000e-05,4.00e-04,
-6.056500e-05,4.00e-04,
-6.056000e-05,4.00e-04,
-6.055500e-05,4.00e-04,
-6.055000e-05,4.00e-04,
-6.054500e-05,0.00e+00,
-6.054000e-05,4.00e-04,
-6.053500e-05,0.00e+00,
-6.053000e-05,-4.00e-04,
-6.052500e-05,0.00e+00,
-6.052000e-05,0.00e+00,
-6.051500e-05,0.00e+00,
-6.051000e-05,4.00e-04,
-6.050500e-05,8.00e-04,
-6.050000e-05,1.60e-03,
-6.049500e-05,2.00e-03,
-6.049000e-05,2.40e-03,
-6.048500e-05,2.40e-03,
-6.048000e-05,2.80e-03,
-6.047500e-05,3.20e-03,
-6.047000e-05,3.20e-03,
-6.046500e-05,3.20e-03,
-6.046000e-05,3.20e-03,
-6.045500e-05,3.60e-03,
-6.045000e-05,3.60e-03,
-6.044500e-05,3.20e-03,
-6.044000e-05,3.20e-03,
-6.043500e-05,4.00e-03,
-6.043000e-05,4.00e-03,
-6.042500e-05,4.00e-03,
-6.042000e-05,4.80e-03,
-6.041500e-05,4.80e-03,
-6.041000e-05,5.20e-03,
-6.040500e-05,5.20e-03,
-6.040000e-05,5.20e-03,
-6.039500e-05,5.20e-03,
-6.039000e-05,4.80e-03,
-6.038500e-05,4.40e-03,
-6.038000e-05,5.20e-03,
-6.037500e-05,5.60e-03,
-6.037000e-05,5.60e-03,
-6.036500e-05,6.40e-03,
-6.036000e-05,7.20e-03,
-6.035500e-05,7.60e-03,
-6.035000e-05,8.00e-03,
-6.034500e-05,8.40e-03,
-6.034000e-05,8.40e-03,
-6.033500e-05,8.40e-03,
-6.033000e-05,8.40e-03,
-6.032500e-05,8.40e-03,
-6.032000e-05,8.00e-03,
-6.031500e-05,7.60e-03,
-6.031000e-05,7.60e-03,
-6.030500e-05,8.00e-03,
-6.030000e-05,7.60e-03,
-6.029500e-05,8.40e-03,
-6.029000e-05,8.40e-03,
-6.028500e-05,8.80e-03,
-6.028000e-05,8.80e-03,
-6.027500e-05,9.20e-03,
-6.027000e-05,9.20e-03,
-6.026500e-05,9.20e-03,
-6.026000e-05,9.60e-03,
-6.025500e-05,9.60e-03,
-6.025000e-05,1.00e-02,
-6.024500e-05,1.00e-02,
-6.024000e-05,1.00e-02,
-6.023500e-05,1.08e-02,
-6.023000e-05,1.08e-02,
-6.022500e-05,1.04e-02,
-6.022000e-05,1.08e-02,
-6.021500e-05,1.12e-02,
-6.021000e-05,1.04e-02,
-6.020500e-05,1.04e-02,
-6.020000e-05,1.08e-02,
-6.019500e-05,1.08e-02,
-6.019000e-05,1.04e-02,
-6.018500e-05,1.04e-02,
-6.018000e-05,1.04e-02,
-6.017500e-05,1.04e-02,
-6.017000e-05,9.60e-03,
-6.016500e-05,1.00e-02,
-6.016000e-05,1.00e-02,
-6.015500e-05,9.60e-03,
-6.015000e-05,9.60e-03,
-6.014500e-05,1.00e-02,
-6.014000e-05,1.00e-02,
-6.013500e-05,1.00e-02,
-6.013000e-05,1.04e-02,
-6.012500e-05,1.04e-02,
-6.012000e-05,1.04e-02,
-6.011500e-05,1.08e-02,
-6.011000e-05,1.04e-02,
-6.010500e-05,1.04e-02,
-6.010000e-05,1.04e-02,
-6.009500e-05,1.04e-02,
-6.009000e-05,9.60e-03,
-6.008500e-05,9.20e-03,
-6.008000e-05,9.60e-03,
-6.007500e-05,9.20e-03,
-6.007000e-05,9.20e-03,
-6.006500e-05,8.80e-03,
-6.006000e-05,8.80e-03,
-6.005500e-05,8.80e-03,
-6.005000e-05,8.40e-03,
-6.004500e-05,8.00e-03,
-6.004000e-05,7.60e-03,
-6.003500e-05,7.60e-03,
-6.003000e-05,7.60e-03,
-6.002500e-05,7.20e-03,
-6.002000e-05,7.20e-03,
-6.001500e-05,6.80e-03,
-6.001000e-05,6.40e-03,
-6.000500e-05,6.40e-03,
-6.000000e-05,6.40e-03,
-5.999500e-05,6.00e-03,
-5.999000e-05,5.60e-03,
-5.998500e-05,6.00e-03,
-5.998000e-05,5.20e-03,
-5.997500e-05,5.20e-03,
-5.997000e-05,4.80e-03,
-5.996500e-05,4.40e-03,
-5.996000e-05,3.60e-03,
-5.995500e-05,3.20e-03,
-5.995000e-05,2.40e-03,
-5.994500e-05,2.40e-03,
-5.994000e-05,2.00e-03,
-5.993500e-05,1.60e-03,
-5.993000e-05,1.20e-03,
-5.992500e-05,1.60e-03,
-5.992000e-05,1.20e-03,
-5.991500e-05,8.00e-04,
-5.991000e-05,8.00e-04,
-5.990500e-05,8.00e-04,
-5.990000e-05,0.00e+00,
-5.989500e-05,-8.00e-04,
-5.989000e-05,-8.00e-04,
-5.988500e-05,-8.00e-04,
-5.988000e-05,-1.60e-03,
-5.987500e-05,-2.00e-03,
-5.987000e-05,-1.60e-03,
-5.986500e-05,-2.00e-03,
-5.986000e-05,-2.00e-03,
-5.985500e-05,-2.00e-03,
-5.985000e-05,-2.40e-03,
-5.984500e-05,-2.40e-03,
-5.984000e-05,-2.40e-03,
-5.983500e-05,-2.40e-03,
-5.983000e-05,-3.20e-03,
-5.982500e-05,-3.20e-03,
-5.982000e-05,-3.20e-03,
-5.981500e-05,-4.00e-03,
-5.981000e-05,-3.20e-03,
-5.980500e-05,-3.20e-03,
-5.980000e-05,-3.20e-03,
-5.979500e-05,-3.60e-03,
-5.979000e-05,-3.20e-03,
-5.978500e-05,-3.20e-03,
-5.978000e-05,-3.60e-03,
-5.977500e-05,-4.00e-03,
-5.977000e-05,-3.60e-03,
-5.976500e-05,-4.40e-03,
-5.976000e-05,-3.60e-03,
-5.975500e-05,-3.60e-03,
-5.975000e-05,-4.80e-03,
-5.974500e-05,-4.40e-03,
-5.974000e-05,-4.00e-03,
-5.973500e-05,-4.00e-03,
-5.973000e-05,-5.20e-03,
-5.972500e-05,-4.80e-03,
-5.972000e-05,-4.80e-03,
-5.971500e-05,-5.20e-03,
-5.971000e-05,-5.20e-03,
-5.970500e-05,-4.80e-03,
-5.970000e-05,-4.00e-03,
-5.969500e-05,-3.60e-03,
-5.969000e-05,-3.20e-03,
-5.968500e-05,-2.40e-03,
-5.968000e-05,-2.40e-03,
-5.967500e-05,-2.80e-03,
-5.967000e-05,-2.80e-03,
-5.966500e-05,-2.80e-03,
-5.966000e-05,-3.20e-03,
-5.965500e-05,-3.20e-03,
-5.965000e-05,-2.80e-03,
-5.964500e-05,-2.80e-03,
-5.964000e-05,-2.00e-03,
-5.963500e-05,-1.20e-03,
-5.963000e-05,-1.20e-03,
-5.962500e-05,-8.00e-04,
-5.962000e-05,-8.00e-04,
-5.961500e-05,-4.00e-04,
-5.961000e-05,-8.00e-04,
-5.960500e-05,-1.20e-03,
-5.960000e-05,-8.00e-04,
-5.959500e-05,-8.00e-04,
-5.959000e-05,-1.60e-03,
-5.958500e-05,-1.20e-03,
-5.958000e-05,-1.20e-03,
-5.957500e-05,-8.00e-04,
-5.957000e-05,-1.20e-03,
-5.956500e-05,-4.00e-04,
-5.956000e-05,-8.00e-04,
-5.955500e-05,-8.00e-04,
-5.955000e-05,-8.00e-04,
-5.954500e-05,-1.20e-03,
-5.954000e-05,-1.20e-03,
-5.953500e-05,-1.20e-03,
-5.953000e-05,-1.20e-03,
-5.952500e-05,-8.00e-04,
-5.952000e-05,-4.00e-04,
-5.951500e-05,0.00e+00,
-5.951000e-05,0.00e+00,
-5.950500e-05,0.00e+00,
-5.950000e-05,0.00e+00,
-5.949500e-05,0.00e+00,
-5.949000e-05,0.00e+00,
-5.948500e-05,0.00e+00,
-5.948000e-05,-4.00e-04,
-5.947500e-05,-4.00e-04,
-5.947000e-05,-4.00e-04,
-5.946500e-05,-4.00e-04,
-5.946000e-05,-8.00e-04,
-5.945500e-05,-8.00e-04,
-5.945000e-05,-8.00e-04,
-5.944500e-05,-1.20e-03,
-5.944000e-05,-1.20e-03,
-5.943500e-05,-1.20e-03,
-5.943000e-05,-1.20e-03,
-5.942500e-05,-1.20e-03,
-5.942000e-05,-1.20e-03,
-5.941500e-05,-8.00e-04,
-5.941000e-05,-8.00e-04,
-5.940500e-05,-8.00e-04,
-5.940000e-05,-4.00e-04,
-5.939500e-05,-8.00e-04,
-5.939000e-05,-4.00e-04,
-5.938500e-05,-4.00e-04,
-5.938000e-05,-4.00e-04,
-5.937500e-05,-4.00e-04,
-5.937000e-05,0.00e+00,
-5.936500e-05,0.00e+00,
-5.936000e-05,-4.00e-04,
-5.935500e-05,-4.00e-04,
-5.935000e-05,-4.00e-04,
-5.934500e-05,-4.00e-04,
-5.934000e-05,-8.00e-04,
-5.933500e-05,-8.00e-04,
-5.933000e-05,-8.00e-04,
-5.932500e-05,-8.00e-04,
-5.932000e-05,-8.00e-04,
-5.931500e-05,-8.00e-04,
-5.931000e-05,0.00e+00,
-5.930500e-05,4.00e-04,
-5.930000e-05,1.20e-03,
-5.929500e-05,1.60e-03,
-5.929000e-05,1.60e-03,
-5.928500e-05,2.00e-03,
-5.928000e-05,2.40e-03,
-5.927500e-05,1.20e-03,
-5.927000e-05,8.00e-04,
-5.926500e-05,1.20e-03,
-5.926000e-05,4.00e-04,
-5.925500e-05,-8.00e-04,
-5.925000e-05,0.00e+00,
-5.924500e-05,4.00e-04,
-5.924000e-05,4.00e-04,
-5.923500e-05,4.00e-04,
-5.923000e-05,1.20e-03,
-5.922500e-05,2.00e-03,
-5.922000e-05,1.60e-03,
-5.921500e-05,1.20e-03,
-5.921000e-05,1.60e-03,
-5.920500e-05,1.60e-03,
-5.920000e-05,1.60e-03,
-5.919500e-05,1.60e-03,
-5.919000e-05,2.00e-03,
-5.918500e-05,2.40e-03,
-5.918000e-05,2.40e-03,
-5.917500e-05,2.40e-03,
-5.917000e-05,3.20e-03,
-5.916500e-05,3.60e-03,
-5.916000e-05,3.60e-03,
-5.915500e-05,3.60e-03,
-5.915000e-05,3.20e-03,
-5.914500e-05,2.80e-03,
-5.914000e-05,2.80e-03,
-5.913500e-05,1.60e-03,
-5.913000e-05,4.00e-04,
-5.912500e-05,8.00e-04,
-5.912000e-05,4.00e-04,
-5.911500e-05,0.00e+00,
-5.911000e-05,4.00e-04,
-5.910500e-05,1.20e-03,
-5.910000e-05,1.60e-03,
-5.909500e-05,1.60e-03,
-5.909000e-05,2.00e-03,
-5.908500e-05,2.80e-03,
-5.908000e-05,2.80e-03,
-5.907500e-05,2.40e-03,
-5.907000e-05,2.40e-03,
-5.906500e-05,2.40e-03,
-5.906000e-05,2.40e-03,
-5.905500e-05,2.00e-03,
-5.905000e-05,2.00e-03,
-5.904500e-05,2.00e-03,
-5.904000e-05,2.00e-03,
-5.903500e-05,2.00e-03,
-5.903000e-05,2.40e-03,
-5.902500e-05,2.00e-03,
-5.902000e-05,2.00e-03,
-5.901500e-05,2.40e-03,
-5.901000e-05,1.20e-03,
-5.900500e-05,1.20e-03,
-5.900000e-05,1.20e-03,
-5.899500e-05,8.00e-04,
-5.899000e-05,1.20e-03,
-5.898500e-05,1.20e-03,
-5.898000e-05,1.20e-03,
-5.897500e-05,1.60e-03,
-5.897000e-05,1.60e-03,
-5.896500e-05,1.60e-03,
-5.896000e-05,1.60e-03,
-5.895500e-05,2.00e-03,
-5.895000e-05,2.00e-03,
-5.894500e-05,2.40e-03,
-5.894000e-05,2.00e-03,
-5.893500e-05,2.40e-03,
-5.893000e-05,2.80e-03,
-5.892500e-05,2.40e-03,
-5.892000e-05,2.40e-03,
-5.891500e-05,2.40e-03,
-5.891000e-05,2.40e-03,
-5.890500e-05,2.00e-03,
-5.890000e-05,1.60e-03,
-5.889500e-05,1.60e-03,
-5.889000e-05,1.60e-03,
-5.888500e-05,1.20e-03,
-5.888000e-05,1.20e-03,
-5.887500e-05,1.20e-03,
-5.887000e-05,1.60e-03,
-5.886500e-05,2.00e-03,
-5.886000e-05,1.60e-03,
-5.885500e-05,2.00e-03,
-5.885000e-05,2.40e-03,
-5.884500e-05,2.00e-03,
-5.884000e-05,2.40e-03,
-5.883500e-05,2.40e-03,
-5.883000e-05,2.40e-03,
-5.882500e-05,2.40e-03,
-5.882000e-05,2.00e-03,
-5.881500e-05,2.00e-03,
-5.881000e-05,2.40e-03,
-5.880500e-05,2.40e-03,
-5.880000e-05,2.00e-03,
-5.879500e-05,2.00e-03,
-5.879000e-05,2.40e-03,
-5.878500e-05,2.00e-03,
-5.878000e-05,1.60e-03,
-5.877500e-05,2.00e-03,
-5.877000e-05,2.00e-03,
-5.876500e-05,2.00e-03,
-5.876000e-05,2.40e-03,
-5.875500e-05,2.80e-03,
-5.875000e-05,2.40e-03,
-5.874500e-05,2.40e-03,
-5.874000e-05,2.40e-03,
-5.873500e-05,2.40e-03,
-5.873000e-05,2.40e-03,
-5.872500e-05,2.00e-03,
-5.872000e-05,1.60e-03,
-5.871500e-05,2.00e-03,
-5.871000e-05,2.00e-03,
-5.870500e-05,1.60e-03,
-5.870000e-05,2.00e-03,
-5.869500e-05,2.40e-03,
-5.869000e-05,2.00e-03,
-5.868500e-05,1.20e-03,
-5.868000e-05,1.20e-03,
-5.867500e-05,8.00e-04,
-5.867000e-05,4.00e-04,
-5.866500e-05,-4.00e-04,
-5.866000e-05,8.00e-04,
-5.865500e-05,1.20e-03,
-5.865000e-05,1.20e-03,
-5.864500e-05,1.60e-03,
-5.864000e-05,2.00e-03,
-5.863500e-05,2.00e-03,
-5.863000e-05,2.00e-03,
-5.862500e-05,1.60e-03,
-5.862000e-05,1.60e-03,
